Week 3 Notes
…
str(newdf$total_2008)

##  num [1:2101] 731 263 80 638 333 536 610 490 585 450 ...

Filtering, Selecting, Grouping, and Summarizing

A basic operation we do a lot is to filter the data so that we are working with a subset of all that we have.

We can do this with the filter() function, part of the dplyr package (in the tidyverse collection of packages).

# Let's say we want to look at the schools with div_num values less than 50
newdf %>% filter(div_num < 50)

## # A tibble: 800 x 137
##    sch_id   div_num div_name     school_num school_name    school_name2 type0809
##    <chr>      <dbl> <chr>        <chr>      <chr>          <chr>        <chr>   
##  1 001-0070       1 Accomack Co~ "0070\xa0" NANDUA HIGH    <NA>         SCH-HIGH
##  2 001-0080       1 Accomack Co~ "0080\xa0" CHINCOTEAGUE ~ <NA>         SCH-ELEM
##  3 001-0530       1 Accomack Co~ "0530\xa0" TANGIER COMBI~ <NA>         SCH-COMB
##  4 001-0540       1 Accomack Co~ "0540\xa0" ARCADIA HIGH   <NA>         SCH-HIGH
##  5 001-0580       1 Accomack Co~ "0580\xa0" CHINCOTEAGUE ~ <NA>         SCH-COMB
##  6 001-0590       1 Accomack Co~ "0590\xa0" PUNGOTEAGUE E~ <NA>         SCH-ELEM
##  7 001-0600       1 Accomack Co~ "0600\xa0" KEGOTANK ELEM  <NA>         SCH-ELEM
##  8 001-0701       1 Accomack Co~ "0701\xa0" ACCAWMACKE EL~ <NA>         SCH-ELEM
##  9 001-0702       1 Accomack Co~ "0702\xa0" METOMPKIN ELEM <NA>         SCH-ELEM
## 10 001-0703       1 Accomack Co~ "0703\xa0" NANDUA MIDDLE  <NA>         SCH-MID 
## # ... with 790 more rows, and 130 more variables: lowgrade_2008 <chr>,
## #   higrade_2008 <chr>, totalFT_2008 <dbl>, total_2008 <dbl>, snp_0809 <chr>,
## #   free_elig_0809 <chr>, free_per_0809 <chr>, red_elig_0809 <chr>,
## #   red_per_0809 <chr>, totalFRL_0809 <dbl>, totalper_0809 <dbl>,
## #   type0910 <chr>, lowgrade_2009 <chr>, higrade_2009 <chr>,
## #   totalFT_2009 <dbl>, total_2009 <dbl>, snp_0910 <chr>, free_elig_0910 <chr>,
## #   free_per_0910 <chr>, red_elig_0910 <chr>, red_per_0910 <chr>,
## #   totalFRL_09010 <dbl>, totalper_0910 <dbl>, type1011 <chr>,
## #   lowgrade_2010 <chr>, higrade_2010 <chr>, totalFT_2010 <dbl>,
…
# Or, if we want to look at schools where the highest grade in 2008 was grade five, we can try:
newdf %>% filter(higrade_2008 == "5") # this returns a subsetted dataframe with 878 rows

## # A tibble: 878 x 137
##    sch_id  div_num div_name     school_num school_name     school_name2 type0809
##    <chr>     <dbl> <chr>        <chr>      <chr>           <chr>        <chr>   
##  1 001-00~       1 Accomack Co~ "0080\xa0" CHINCOTEAGUE E~ <NA>         SCH-ELEM
##  2 001-05~       1 Accomack Co~ "0590\xa0" PUNGOTEAGUE EL~ <NA>         SCH-ELEM
##  3 001-06~       1 Accomack Co~ "0600\xa0" KEGOTANK ELEM   <NA>         SCH-ELEM
##  4 001-07~       1 Accomack Co~ "0701\xa0" ACCAWMACKE ELEM <NA>         SCH-ELEM
##  5 001-07~       1 Accomack Co~ "0702\xa0" METOMPKIN ELEM  <NA>         SCH-ELEM
##  6 002-00~       2 Albemarle C~ "0010\xa0" HOLLYMEAD ELEM  <NA>         SCH-ELEM
##  7 002-00~       2 Albemarle C~ "0030\xa0" SCOTTSVILLE EL~ <NA>         SCH-ELEM
##  8 002-00~       2 Albemarle C~ "0040\xa0" MARY CARR GREE~ <NA>         SCH-ELEM
##  9 002-01~       2 Albemarle C~ "0100\xa0" BROADUS WOOD E~ <NA>         SCH-ELEM
## 10 002-01~       2 Albemarle C~ "0150\xa0" PAUL H CALE EL~ <NA>         SCH-ELEM
## # ... with 868 more rows, and 130 more variables: lowgrade_2008 <chr>,
## #   higrade_2008 <chr>, totalFT_2008 <dbl>, total_2008 <dbl>, snp_0809 <chr>,
## #   free_elig_0809 <chr>, free_per_0809 <chr>, red_elig_0809 <chr>,
## #   red_per_0809 <chr>, totalFRL_0809 <dbl>, totalper_0809 <dbl>,
## #   type0910 <chr>, lowgrade_2009 <chr>, higrade_2009 <chr>,
## #   totalFT_2009 <dbl>, total_2009 <dbl>, snp_0910 <chr>, free_elig_0910 <chr>,
## #   free_per_0910 <chr>, red_elig_0910 <chr>, red_per_0910 <chr>,
## #   totalFRL_09010 <dbl>, totalper_0910 <dbl>, type1011 <chr>,
## #   lowgrade_2010 <chr>, higrade_2010 <chr>, totalFT_2010 <dbl>,
…
## Note that we had to set it equal to the character value "5" rather than the numeric value 5. Why?

# If we wanted to filter on numeric values instead, we would want to do something like this:
newdf %>% 
  mutate(higrade_2008 = as.numeric(higrade_2008)) %>% 
  filter(higrade_2008 == 5) # again, this returns a subsetted dataframe with 878 rows

## Warning in mask$eval_all_mutate(quo): NAs introduced by coercion

## # A tibble: 878 x 137
##    sch_id  div_num div_name     school_num school_name     school_name2 type0809
##    <chr>     <dbl> <chr>        <chr>      <chr>           <chr>        <chr>   
##  1 001-00~       1 Accomack Co~ "0080\xa0" CHINCOTEAGUE E~ <NA>         SCH-ELEM
##  2 001-05~       1 Accomack Co~ "0590\xa0" PUNGOTEAGUE EL~ <NA>         SCH-ELEM
##  3 001-06~       1 Accomack Co~ "0600\xa0" KEGOTANK ELEM   <NA>         SCH-ELEM
##  4 001-07~       1 Accomack Co~ "0701\xa0" ACCAWMACKE ELEM <NA>         SCH-ELEM
##  5 001-07~       1 Accomack Co~ "0702\xa0" METOMPKIN ELEM  <NA>         SCH-ELEM
##  6 002-00~       2 Albemarle C~ "0010\xa0" HOLLYMEAD ELEM  <NA>         SCH-ELEM
##  7 002-00~       2 Albemarle C~ "0030\xa0" SCOTTSVILLE EL~ <NA>         SCH-ELEM
##  8 002-00~       2 Albemarle C~ "0040\xa0" MARY CARR GREE~ <NA>         SCH-ELEM
##  9 002-01~       2 Albemarle C~ "0100\xa0" BROADUS WOOD E~ <NA>         SCH-ELEM
## 10 002-01~       2 Albemarle C~ "0150\xa0" PAUL H CALE EL~ <NA>         SCH-ELEM
## # ... with 868 more rows, and 130 more variables: lowgrade_2008 <chr>,
## #   higrade_2008 <dbl>, totalFT_2008 <dbl>, total_2008 <dbl>, snp_0809 <chr>,
## #   free_elig_0809 <chr>, free_per_0809 <chr>, red_elig_0809 <chr>,
## #   red_per_0809 <chr>, totalFRL_0809 <dbl>, totalper_0809 <dbl>,
## #   type0910 <chr>, lowgrade_2009 <chr>, higrade_2009 <chr>,
## #   totalFT_2009 <dbl>, total_2009 <dbl>, snp_0910 <chr>, free_elig_0910 <chr>,
## #   free_per_0910 <chr>, red_elig_0910 <chr>, red_per_0910 <chr>,
## #   totalFRL_09010 <dbl>, totalper_0910 <dbl>, type1011 <chr>,
## #   lowgrade_2010 <chr>, higrade_2010 <chr>, totalFT_2010 <dbl>,
…
